{"filesize": "", "keyword": "", "list": [{"ID": "39213f625bf8425a8e871fb5b15e1dfa", "EPS_NAME": "吉林一正科技发展有限公司", "PRODUCT_SN": "吉妆20160015", "CITY_CODE": "278", "XK_COMPLETE_DATE": {"date": 2, "day": 3, "hours": 0, "minutes": 0, "month": 11, "nanos": 0, "seconds": 0, "time": 1606838400000, "timezoneOffset": -480, "year": 120}, "XK_DATE": "2021-09-11", "QF_MANAGER_NAME": "吉林省食品药品监督管理局", "BUSINESS_LICENSE_NUMBER": "91220394559795377J", "XC_DATE": "2020-12-02", "NUM_": 1}, {"ID": "86f41470eadd42048ba120b6a0b5ce69", "EPS_NAME": "广东璞言生物科技有限公司", "PRODUCT_SN": "粤妆20200238", "CITY_CODE": null, "XK_COMPLETE_DATE": {"date": 1, "day": 2, "hours": 0, "minutes": 0, "month": 11, "nanos": 0, "seconds": 0, "time": 1606752000000, "timezoneOffset": -480, "year": 120}, "XK_DATE": "2025-11-30", "QF_MANAGER_NAME": "广东省药品监督管理局", "BUSINESS_LICENSE_NUMBER": "91440513MA54JAN31N", "XC_DATE": "2020-12-01", "NUM_": 2}, {"ID": "1bde7d3498c14463b53d708ea474e843", "EPS_NAME": "汕头市澄海区金泳乐化妆品有限公司", "PRODUCT_SN": "粤妆20160582", "CITY_CODE": null, "XK_COMPLETE_DATE": {"date": 1, "day": 2, "hours": 0, "minutes": 0, "month": 11, "nanos": 0, "seconds": 0, "time": 1606752000000, "timezoneOffset": -480, "year": 120}, "XK_DATE": "2023-08-14", "QF_MANAGER_NAME": "广东省药品监督管理局", "BUSINESS_LICENSE_NUMBER": "91440515730485070R", "XC_DATE": "2020-12-01", "NUM_": 3}, {"ID": "b47a8488b1a640f0b46cdc73d71fa244", "EPS_NAME": "常州伟博海泰生物科技有限公司", "PRODUCT_SN": "苏妆20160086", "CITY_CODE": "91", "XK_COMPLETE_DATE": {"date": 1, "day": 2, "hours": 0, "minutes": 0, "month": 11, "nanos": 0, "seconds": 0, "time": 1606752000000, "timezoneOffset": -480, "year": 120}, "XK_DATE": "2023-12-24", "QF_MANAGER_NAME": "江苏省药品监督管理局", "BUSINESS_LICENSE_NUMBER": "91320411076300122U", "XC_DATE": "2020-12-01", "NUM_": 4}, {"ID": "ae8324769a434638acc24bbb29753cde", "EPS_NAME": "众唯汇诚（辽宁）生物科技有限公司", "PRODUCT_SN": "辽妆20190012", "CITY_CODE": "290", "XK_COMPLETE_DATE": {"date": 1, "day": 2, "hours": 0, "minutes": 0, "month": 11, "nanos": 0, "seconds": 0, "time": 1606752000000, "timezoneOffset": -480, "year": 120}, "XK_DATE": "2024-12-20", "QF_MANAGER_NAME": "辽宁省药品监督管理局", "BUSINESS_LICENSE_NUMBER": "91210500MA1004W54M", "XC_DATE": "2020-12-01", "NUM_": 5}, {"ID": "a5ff467ab1b648d590b30aa3cc8a2d56", "EPS_NAME": "广州天然国度生物科技有限公司", "PRODUCT_SN": "粤妆20200236", "CITY_CODE": null, "XK_COMPLETE_DATE": {"date": 30, "day": 1, "hours": 0, "minutes": 0, "month": 10, "nanos": 0, "seconds": 0, "time": 1606665600000, "timezoneOffset": -480, "year": 120}, "XK_DATE": "2025-11-29", "QF_MANAGER_NAME": "广东省药品监督管理局", "BUSINESS_LICENSE_NUMBER": "91440101MA9ULP4U43", "XC_DATE": "2020-11-30", "NUM_": 6}, {"ID": "6005ea53473e4e9ea491bf776bd60e2e", "EPS_NAME": "名宇（广东）化妆品科技有限公司", "PRODUCT_SN": "粤妆20200235", "CITY_CODE": null, "XK_COMPLETE_DATE": {"date": 30, "day": 1, "hours": 0, "minutes": 0, "month": 10, "nanos": 0, "seconds": 0, "time": 1606665600000, "timezoneOffset": -480, "year": 120}, "XK_DATE": "2025-11-29", "QF_MANAGER_NAME": "广东省药品监督管理局", "BUSINESS_LICENSE_NUMBER": "91440101MA9UKENC2T", "XC_DATE": "2020-11-30", "NUM_": 7}, {"ID": "b4437b636b5944eb9eadc1418f312b19", "EPS_NAME": "四川隆力奇实业有限公司", "PRODUCT_SN": "川妆20160003", "CITY_CODE": "165", "XK_COMPLETE_DATE": {"date": 30, "day": 1, "hours": 0, "minutes": 0, "month": 10, "nanos": 0, "seconds": 0, "time": 1606665600000, "timezoneOffset": -480, "year": 120}, "XK_DATE": "2021-08-18", "QF_MANAGER_NAME": "四川省药品监督管理局", "BUSINESS_LICENSE_NUMBER": "91510112794939158Q", "XC_DATE": "2020-11-30", "NUM_": 8}, {"ID": "f015717cb3364e47891c6f6140d9c7e4", "EPS_NAME": "丽雅国际生物科技（广州）有限公司", "PRODUCT_SN": "粤妆20200237", "CITY_CODE": null, "XK_COMPLETE_DATE": {"date": 27, "day": 5, "hours": 0, "minutes": 0, "month": 10, "nanos": 0, "seconds": 0, "time": 1606406400000, "timezoneOffset": -480, "year": 120}, "XK_DATE": "2025-11-26", "QF_MANAGER_NAME": "广东省药品监督管理局", "BUSINESS_LICENSE_NUMBER": "91440101MA9UW9T12P", "XC_DATE": "2020-11-27", "NUM_": 9}, {"ID": "ccb44aae22554b8e9e60aad4fb6be2aa", "EPS_NAME": "广州大唐化妆品有限公司", "PRODUCT_SN": "粤妆20200233", "CITY_CODE": null, "XK_COMPLETE_DATE": {"date": 27, "day": 5, "hours": 0, "minutes": 0, "month": 10, "nanos": 0, "seconds": 0, "time": 1606406400000, "timezoneOffset": -480, "year": 120}, "XK_DATE": "2025-11-26", "QF_MANAGER_NAME": "广东省药品监督管理局", "BUSINESS_LICENSE_NUMBER": "91440101MA9UM5B397", "XC_DATE": "2020-11-27", "NUM_": 10}, {"ID": "4cf125b03b9947a58600302c69ca4402", "EPS_NAME": "广州市倩雅丝精细化工有限公司", "PRODUCT_SN": "粤妆20160693", "CITY_CODE": null, "XK_COMPLETE_DATE": {"date": 27, "day": 5, "hours": 0, "minutes": 0, "month": 10, "nanos": 0, "seconds": 0, "time": 1606406400000, "timezoneOffset": -480, "year": 120}, "XK_DATE": "2025-11-26", "QF_MANAGER_NAME": "广东省药品监督管理局", "BUSINESS_LICENSE_NUMBER": "91440111716373443G", "XC_DATE": "2020-11-27", "NUM_": 11}, {"ID": "e02b9ae90a0e419f93e7baf64a022dfb", "EPS_NAME": "重庆四季香海芳香生物科技有限公司", "PRODUCT_SN": "渝妆20200002", "CITY_CODE": "448", "XK_COMPLETE_DATE": {"date": 27, "day": 5, "hours": 0, "minutes": 0, "month": 10, "nanos": 0, "seconds": 0, "time": 1606406400000, "timezoneOffset": -480, "year": 120}, "XK_DATE": "2025-11-26", "QF_MANAGER_NAME": "重庆市药品监督管理局", "BUSINESS_LICENSE_NUMBER": "91500225MA5YNBBA45", "XC_DATE": "2020-11-27", "NUM_": 12}, {"ID": "c03863ccafe84187a05427fc6bf9603e", "EPS_NAME": "保山市新华肥皂有限责任公司", "PRODUCT_SN": "云妆20200003", "CITY_CODE": "208", "XK_COMPLETE_DATE": {"date": 26, "day": 4, "hours": 0, "minutes": 0, "month": 10, "nanos": 0, "seconds": 0, "time": 1606320000000, "timezoneOffset": -480, "year": 120}, "XK_DATE": "2025-11-26", "QF_MANAGER_NAME": "云南省药品监督管理局", "BUSINESS_LICENSE_NUMBER": "91530502218930200C", "XC_DATE": "2020-11-26", "NUM_": 13}, {"ID": "08c2e19aae3742cfba76665c9de47338", "EPS_NAME": "完美日记化妆品（广州）有限公司", "PRODUCT_SN": "粤妆20190237", "CITY_CODE": null, "XK_COMPLETE_DATE": {"date": 26, "day": 4, "hours": 0, "minutes": 0, "month": 10, "nanos": 0, "seconds": 0, "time": 1606320000000, "timezoneOffset": -480, "year": 120}, "XK_DATE": "2024-10-24", "QF_MANAGER_NAME": "广东省药品监督管理局", "BUSINESS_LICENSE_NUMBER": "91440101MA5CC4NE45", "XC_DATE": "2020-11-26", "NUM_": 14}, {"ID": "63033294efa14bba9c88f3a43b611d40", "EPS_NAME": "广州市盛好佳化妆品有限公司", "PRODUCT_SN": "粤妆20161057", "CITY_CODE": null, "XK_COMPLETE_DATE": {"date": 26, "day": 4, "hours": 0, "minutes": 0, "month": 10, "nanos": 0, "seconds": 0, "time": 1606320000000, "timezoneOffset": -480, "year": 120}, "XK_DATE": "2025-11-25", "QF_MANAGER_NAME": "广东省药品监督管理局", "BUSINESS_LICENSE_NUMBER": "91440111094107799F", "XC_DATE": "2020-11-26", "NUM_": 15}], "orderBy": "createDate", "orderType": "desc", "pageCount": 361, "pageNumber": 1, "pageSize": 15, "property": "", "totalCount": 5401}