{
  "filesize": "",
  "keyword": "",
  "list": [
    {
      "ID": "e02b9ae90a0e419f93e7baf64a022dfb",
      "EPS_NAME": "重庆四季香海芳香生物科技有限公司",
      "PRODUCT_SN": "渝妆20200002",
      "CITY_CODE": "448",
      "XK_COMPLETE_DATE": {
        "date": 27,
        "day": 5,
        "hours": 0,
        "minutes": 0,
        "month": 10,
        "nanos": 0,
        "seconds": 0,
        "time": 1606406400000,
        "timezoneOffset": -480,
        "year": 120
      },
      "XK_DATE": "2025-11-26",
      "QF_MANAGER_NAME": "重庆市药品监督管理局",
      "BUSINESS_LICENSE_NUMBER": "91500225MA5YNBBA45",
      "XC_DATE": "2020-11-27",
      "NUM_": 1
    },
    {
      "ID": "c03863ccafe84187a05427fc6bf9603e",
      "EPS_NAME": "保山市新华肥皂有限责任公司",
      "PRODUCT_SN": "云妆20200003",
      "CITY_CODE": "208",
      "XK_COMPLETE_DATE": {
        "date": 26,
        "day": 4,
        "hours": 0,
        "minutes": 0,
        "month": 10,
        "nanos": 0,
        "seconds": 0,
        "time": 1606320000000,
        "timezoneOffset": -480,
        "year": 120
      },
      "XK_DATE": "2025-11-26",
      "QF_MANAGER_NAME": "云南省药品监督管理局",
      "BUSINESS_LICENSE_NUMBER": "91530502218930200C",
      "XC_DATE": "2020-11-26",
      "NUM_": 2
    },
    {
      "ID": "08c2e19aae3742cfba76665c9de47338",
      "EPS_NAME": "完美日记化妆品（广州）有限公司",
      "PRODUCT_SN": "粤妆20190237",
      "CITY_CODE": null,
      "XK_COMPLETE_DATE": {
        "date": 26,
        "day": 4,
        "hours": 0,
        "minutes": 0,
        "month": 10,
        "nanos": 0,
        "seconds": 0,
        "time": 1606320000000,
        "timezoneOffset": -480,
        "year": 120
      },
      "XK_DATE": "2024-10-24",
      "QF_MANAGER_NAME": "广东省药品监督管理局",
      "BUSINESS_LICENSE_NUMBER": "91440101MA5CC4NE45",
      "XC_DATE": "2020-11-26",
      "NUM_": 3
    },
    {
      "ID": "63033294efa14bba9c88f3a43b611d40",
      "EPS_NAME": "广州市盛好佳化妆品有限公司",
      "PRODUCT_SN": "粤妆20161057",
      "CITY_CODE": null,
      "XK_COMPLETE_DATE": {
        "date": 26,
        "day": 4,
        "hours": 0,
        "minutes": 0,
        "month": 10,
        "nanos": 0,
        "seconds": 0,
        "time": 1606320000000,
        "timezoneOffset": -480,
        "year": 120
      },
      "XK_DATE": "2025-11-25",
      "QF_MANAGER_NAME": "广东省药品监督管理局",
      "BUSINESS_LICENSE_NUMBER": "91440111094107799F",
      "XC_DATE": "2020-11-26",
      "NUM_": 4
    },
    {
      "ID": "78702efe036347fcad8b6afbe223350b",
      "EPS_NAME": "广州玳琳生物科技有限公司",
      "PRODUCT_SN": "粤妆20161046",
      "CITY_CODE": null,
      "XK_COMPLETE_DATE": {
        "date": 26,
        "day": 4,
        "hours": 0,
        "minutes": 0,
        "month": 10,
        "nanos": 0,
        "seconds": 0,
        "time": 1606320000000,
        "timezoneOffset": -480,
        "year": 120
      },
      "XK_DATE": "2025-11-25",
      "QF_MANAGER_NAME": "广东省药品监督管理局",
      "BUSINESS_LICENSE_NUMBER": "91440111327604965Q",
      "XC_DATE": "2020-11-26",
      "NUM_": 5
    },
    {
      "ID": "96d7b142a3da4347b3afa591aa33776c",
      "EPS_NAME": "惠能科技（湘潭）有限公司",
      "PRODUCT_SN": "湘妆20200002",
      "CITY_CODE": "191",
      "XK_COMPLETE_DATE": {
        "date": 26,
        "day": 4,
        "hours": 0,
        "minutes": 0,
        "month": 10,
        "nanos": 0,
        "seconds": 0,
        "time": 1606320000000,
        "timezoneOffset": -480,
        "year": 120
      },
      "XK_DATE": "2025-03-11",
      "QF_MANAGER_NAME": "湖南省药品监督管理局",
      "BUSINESS_LICENSE_NUMBER": "91430300588954197L",
      "XC_DATE": "2020-11-26",
      "NUM_": 6
    },
    {
      "ID": "a60b7e58247b4400925025f6251f119c",
      "EPS_NAME": "银川凤仪堂生物工程有限公司",
      "PRODUCT_SN": "宁妆20170001",
      "CITY_CODE": "299",
      "XK_COMPLETE_DATE": {
        "date": 26,
        "day": 4,
        "hours": 0,
        "minutes": 0,
        "month": 10,
        "nanos": 0,
        "seconds": 0,
        "time": 1606320000000,
        "timezoneOffset": -480,
        "year": 120
      },
      "XK_DATE": "2022-05-26",
      "QF_MANAGER_NAME": "宁夏回族自治区食品药品监督管理局",
      "BUSINESS_LICENSE_NUMBER": "91640122MA75WMWF57",
      "XC_DATE": "2020-11-26",
      "NUM_": 7
    },
    {
      "ID": "84cd0ad857e2466ea189598fcccd744a",
      "EPS_NAME": "大连原藤化工有限公司",
      "PRODUCT_SN": "辽妆20160002",
      "CITY_CODE": "287",
      "XK_COMPLETE_DATE": {
        "date": 26,
        "day": 4,
        "hours": 0,
        "minutes": 0,
        "month": 10,
        "nanos": 0,
        "seconds": 0,
        "time": 1606320000000,
        "timezoneOffset": -480,
        "year": 120
      },
      "XK_DATE": "2021-04-25",
      "QF_MANAGER_NAME": "辽宁省药品监督管理局",
      "BUSINESS_LICENSE_NUMBER": "91210200565514981K",
      "XC_DATE": "2020-11-26",
      "NUM_": 8
    },
    {
      "ID": "0ebcd118d5e74364912c70a1148c7e86",
      "EPS_NAME": "广东领秀首美生物科技有限公司",
      "PRODUCT_SN": "粤妆20200229",
      "CITY_CODE": null,
      "XK_COMPLETE_DATE": {
        "date": 25,
        "day": 3,
        "hours": 0,
        "minutes": 0,
        "month": 10,
        "nanos": 0,
        "seconds": 0,
        "time": 1606233600000,
        "timezoneOffset": -480,
        "year": 120
      },
      "XK_DATE": "2025-11-24",
      "QF_MANAGER_NAME": "广东省药品监督管理局",
      "BUSINESS_LICENSE_NUMBER": "91440607MA4W3RUN29",
      "XC_DATE": "2020-11-25",
      "NUM_": 9
    },
    {
      "ID": "153310dfb67b421b8533f242b1a2be21",
      "EPS_NAME": "三凤日用化工（四会）有限公司",
      "PRODUCT_SN": "粤妆20200230",
      "CITY_CODE": null,
      "XK_COMPLETE_DATE": {
        "date": 24,
        "day": 2,
        "hours": 0,
        "minutes": 0,
        "month": 10,
        "nanos": 0,
        "seconds": 0,
        "time": 1606147200000,
        "timezoneOffset": -480,
        "year": 120
      },
      "XK_DATE": "2025-11-23",
      "QF_MANAGER_NAME": "广东省药品监督管理局",
      "BUSINESS_LICENSE_NUMBER": "91441200MA4WWQRJ63",
      "XC_DATE": "2020-11-24",
      "NUM_": 10
    },
    {
      "ID": "c027cec9804040b4a3a9bc6f86a769ee",
      "EPS_NAME": "广州奕华生物科技有限公司",
      "PRODUCT_SN": "粤妆20200228",
      "CITY_CODE": null,
      "XK_COMPLETE_DATE": {
        "date": 24,
        "day": 2,
        "hours": 0,
        "minutes": 0,
        "month": 10,
        "nanos": 0,
        "seconds": 0,
        "time": 1606147200000,
        "timezoneOffset": -480,
        "year": 120
      },
      "XK_DATE": "2025-11-23",
      "QF_MANAGER_NAME": "广东省药品监督管理局",
      "BUSINESS_LICENSE_NUMBER": "91440101MA5D4NF16W",
      "XC_DATE": "2020-11-24",
      "NUM_": 11
    },
    {
      "ID": "9a53813ccd6a491b92cf06d561f3c4ae",
      "EPS_NAME": "广州芝美生物科技有限公司",
      "PRODUCT_SN": "粤妆20200227",
      "CITY_CODE": null,
      "XK_COMPLETE_DATE": {
        "date": 24,
        "day": 2,
        "hours": 0,
        "minutes": 0,
        "month": 10,
        "nanos": 0,
        "seconds": 0,
        "time": 1606147200000,
        "timezoneOffset": -480,
        "year": 120
      },
      "XK_DATE": "2025-11-23",
      "QF_MANAGER_NAME": "广东省药品监督管理局",
      "BUSINESS_LICENSE_NUMBER": "91440101MA9UMMW63U",
      "XC_DATE": "2020-11-24",
      "NUM_": 12
    },
    {
      "ID": "9707170957974b1199fba0a37ba51a26",
      "EPS_NAME": "广州多米达化妆品有限公司",
      "PRODUCT_SN": "粤妆20200226",
      "CITY_CODE": null,
      "XK_COMPLETE_DATE": {
        "date": 24,
        "day": 2,
        "hours": 0,
        "minutes": 0,
        "month": 10,
        "nanos": 0,
        "seconds": 0,
        "time": 1606147200000,
        "timezoneOffset": -480,
        "year": 120
      },
      "XK_DATE": "2025-11-23",
      "QF_MANAGER_NAME": "广东省药品监督管理局",
      "BUSINESS_LICENSE_NUMBER": "91440101MA9UQCT50C",
      "XC_DATE": "2020-11-24",
      "NUM_": 13
    },
    {
      "ID": "11863f5006ae41f4903856ff353e8419",
      "EPS_NAME": "中森优品（广州）生物科技有限公司",
      "PRODUCT_SN": "粤妆20200225",
      "CITY_CODE": null,
      "XK_COMPLETE_DATE": {
        "date": 24,
        "day": 2,
        "hours": 0,
        "minutes": 0,
        "month": 10,
        "nanos": 0,
        "seconds": 0,
        "time": 1606147200000,
        "timezoneOffset": -480,
        "year": 120
      },
      "XK_DATE": "2025-11-23",
      "QF_MANAGER_NAME": "广东省药品监督管理局",
      "BUSINESS_LICENSE_NUMBER": "91440101MA5AWC2EXH",
      "XC_DATE": "2020-11-24",
      "NUM_": 14
    },
    {
      "ID": "a1176dff622c41bdac4c58b272f759db",
      "EPS_NAME": "濡美（广州）生物工程有限公司",
      "PRODUCT_SN": "粤妆20190141",
      "CITY_CODE": null,
      "XK_COMPLETE_DATE": {
        "date": 24,
        "day": 2,
        "hours": 0,
        "minutes": 0,
        "month": 10,
        "nanos": 0,
        "seconds": 0,
        "time": 1606147200000,
        "timezoneOffset": -480,
        "year": 120
      },
      "XK_DATE": "2024-07-30",
      "QF_MANAGER_NAME": "广东省药品监督管理局",
      "BUSINESS_LICENSE_NUMBER": "91440101MA5CK4103J",
      "XC_DATE": "2020-11-24",
      "NUM_": 15
    }
  ],
  "orderBy": "createDate",
  "orderType": "desc",
  "pageCount": 360,
  "pageNumber": 1,
  "pageSize": 15,
  "property": "",
  "totalCount": 5394
}